[gd_scene load_steps=3 format=2]

[ext_resource path="res://images/String 8px.png" type="Texture" id=1]

[sub_resource type="SegmentShape2D" id=1]

custom_solver_bias = 0.0
a = Vector2( 0, 0 )
b = Vector2( 0, 16 )

[node name="String" type="RigidBody2D"]

input_pickable = false
collision_layer = 0
collision_mask = 0
mode = 0
mass = 0.1
friction = 1.0
bounce = 0.0
gravity_scale = 5.0
custom_integrator = false
continuous_cd = 0
contacts_reported = 0
contact_monitor = false
sleeping = false
can_sleep = true
linear_velocity = Vector2( 0, 0 )
linear_damp = 1.0
angular_velocity = 0.0
angular_damp = 1.0
_sections_unfolded = [ "Collision", "Linear", "Transform" ]

[node name="CollisionShape2D" type="CollisionShape2D" parent="." index="0"]

shape = SubResource( 1 )

[node name="Sprite" type="Sprite" parent="." index="1"]

scale = Vector2( 1, 2 )
texture = ExtResource( 1 )
centered = false
offset = Vector2( -1, 0 )
_sections_unfolded = [ "Offset", "Transform", "Z Index" ]

[node name="Joint" type="PinJoint2D" parent="." index="2"]

position = Vector2( 0, 16 )
node_a = NodePath("")
node_b = NodePath("")
bias = 0.9
disable_collision = true
softness = 0.8
_sections_unfolded = [ "Transform" ]


