[gd_scene load_steps=3 format=2]

[ext_resource path="res://World.gd" type="Script" id=1]
[ext_resource path="res://scenes-characters/Puppet.tscn" type="PackedScene" id=2]

[node name="World" type="Node"]

script = ExtResource( 1 )

[node name="Control" type="Control" parent="." index="0"]

anchor_left = 0.5
anchor_top = 0.0
anchor_right = 0.5
anchor_bottom = 0.0
margin_left = -480.0
margin_top = 64.0
margin_right = -440.0
margin_bottom = 104.0
rect_pivot_offset = Vector2( 0, 0 )
rect_clip_content = false
mouse_filter = 0
mouse_default_cursor_shape = 0
size_flags_horizontal = 1
size_flags_vertical = 1

[node name="CenterContainer" type="CenterContainer" parent="Control" index="0"]

anchor_left = 0.0
anchor_top = 0.0
anchor_right = 1.0
anchor_bottom = 1.0
rect_pivot_offset = Vector2( 0, 0 )
rect_clip_content = false
mouse_filter = 0
mouse_default_cursor_shape = 0
size_flags_horizontal = 1
size_flags_vertical = 1
use_top_left = false

[node name="WeatherContainer" type="HBoxContainer" parent="Control/CenterContainer" index="0"]

anchor_left = 0.0
anchor_top = 0.0
anchor_right = 0.0
anchor_bottom = 0.0
margin_top = 10.0
margin_right = 39.0
margin_bottom = 30.0
rect_pivot_offset = Vector2( 0, 0 )
rect_clip_content = false
mouse_filter = 1
mouse_default_cursor_shape = 0
size_flags_horizontal = 1
size_flags_vertical = 1
alignment = 0

[node name="SunButton" type="Button" parent="Control/CenterContainer/WeatherContainer" index="0"]

anchor_left = 0.0
anchor_top = 0.0
anchor_right = 0.0
anchor_bottom = 0.0
margin_right = 39.0
margin_bottom = 20.0
rect_pivot_offset = Vector2( 0, 0 )
rect_clip_content = false
focus_mode = 2
mouse_filter = 0
mouse_default_cursor_shape = 0
size_flags_horizontal = 1
size_flags_vertical = 1
toggle_mode = true
enabled_focus_mode = 2
shortcut = null
group = null
text = "SUN"
flat = false
align = 1

[node name="Puppet" parent="." index="1" instance=ExtResource( 2 )]

position = Vector2( 416, 96 )

[node name="Camera2D" type="Camera2D" parent="." index="2"]

position = Vector2( 832, 576 )
anchor_mode = 1
rotating = false
current = true
zoom = Vector2( 2.4, 2.4 )
limit_left = -10000000
limit_top = -10000000
limit_right = 10000000
limit_bottom = 10000000
limit_smoothed = false
drag_margin_h_enabled = true
drag_margin_v_enabled = true
smoothing_enabled = false
smoothing_speed = 5.0
offset_v = 0.0
offset_h = 0.0
drag_margin_left = 0.2
drag_margin_top = 0.2
drag_margin_right = 0.2
drag_margin_bottom = 0.2
editor_draw_screen = true
editor_draw_limits = false
editor_draw_drag_margin = false

[connection signal="toggled" from="Control/CenterContainer/WeatherContainer/SunButton" to="." method="_on_SunButton_toggled"]


